<svg width="25" height="15" viewBox="0 0 25 15" fill="none" xmlns="http://www.w3.org/2000/svg">
<path d="M0.644531 7.5C0.644531 3.35786 4.0024 0 8.14453 0H17.1445C21.2867 0 24.6445 3.35786 24.6445 7.5C24.6445 11.6421 21.2867 15 17.1445 15H8.14453C4.0024 15 0.644531 11.6421 0.644531 7.5Z" fill="white"/>
<path d="M6.80055 11H8.11891L11.1316 5.00391V3.9541H6.22926V4.98438H9.86207V5.0625L6.80055 11ZM11.8682 11.0977C12.332 11.0977 12.6494 10.7705 12.6494 10.3359C12.6494 9.90625 12.332 9.5791 11.8682 9.5791C11.4092 9.5791 11.0869 9.90625 11.0869 10.3359C11.0869 10.7705 11.4092 11.0977 11.8682 11.0977ZM16.0618 11.1709C17.8538 11.1709 18.9182 9.76953 18.9182 7.3916C18.9182 5.05762 17.7854 3.77832 16.1008 3.77832C14.5676 3.77832 13.4836 4.80859 13.4836 6.24902C13.4836 7.60156 14.4602 8.58789 15.803 8.58789C16.6282 8.58789 17.2971 8.20703 17.6291 7.53809H17.7121C17.6975 9.19336 17.1067 10.1406 16.0764 10.1406C15.4709 10.1406 14.9875 9.80859 14.8362 9.27148H13.5813C13.7864 10.4189 14.7727 11.1709 16.0618 11.1709ZM16.1057 7.61621C15.2854 7.61621 14.719 7.04004 14.719 6.20996C14.719 5.41406 15.3147 4.80371 16.1106 4.80371C16.9065 4.80371 17.5022 5.42383 17.5022 6.23438C17.5022 7.03516 16.9211 7.61621 16.1057 7.61621Z" fill="#002DFF"/>
<path d="M8.14453 1H17.1445V-1H8.14453V1ZM17.1445 14H8.14453V16H17.1445V14ZM8.14453 14C4.55468 14 1.64453 11.0899 1.64453 7.5H-0.355469C-0.355469 12.1944 3.45011 16 8.14453 16V14ZM23.6445 7.5C23.6445 11.0899 20.7344 14 17.1445 14V16C21.839 16 25.6445 12.1944 25.6445 7.5H23.6445ZM17.1445 1C20.7344 1 23.6445 3.91015 23.6445 7.5H25.6445C25.6445 2.80558 21.839 -1 17.1445 -1V1ZM8.14453 -1C3.45011 -1 -0.355469 2.80558 -0.355469 7.5H1.64453C1.64453 3.91015 4.55468 1 8.14453 1V-1Z" fill="#002DFF"/>
</svg>
