<svg width="25" height="15" viewBox="0 0 25 15" fill="none" xmlns="http://www.w3.org/2000/svg">
<path d="M0.644531 7.5C0.644531 3.35786 4.0024 0 8.14453 0H17.1445C21.2867 0 24.6445 3.35786 24.6445 7.5C24.6445 11.6421 21.2867 15 17.1445 15H8.14453C4.0024 15 0.644531 11.6421 0.644531 7.5Z" fill="white"/>
<path d="M6.8152 11H8.13355L11.1462 5.00391V3.9541H6.24391V4.98438H9.87672V5.0625L6.8152 11ZM11.8828 11.0977C12.3467 11.0977 12.6641 10.7705 12.6641 10.3359C12.6641 9.90625 12.3467 9.5791 11.8828 9.5791C11.4238 9.5791 11.1016 9.90625 11.1016 10.3359C11.1016 10.7705 11.4238 11.0977 11.8828 11.0977ZM16.2815 11.1709C17.8147 11.1709 18.8987 10.1455 18.8987 8.7002C18.8987 7.34766 17.9172 6.36133 16.5793 6.36133C15.7493 6.36133 15.0852 6.74219 14.7532 7.41113H14.6702C14.6799 5.72656 15.2903 4.80859 16.3352 4.80859C16.9602 4.80859 17.4192 5.13086 17.5413 5.68262H18.801C18.6252 4.54492 17.6633 3.77832 16.3108 3.77832C14.5627 3.77832 13.4641 5.18457 13.4641 7.55762C13.4641 9.96973 14.6506 11.1709 16.2815 11.1709ZM16.2717 10.1455C15.4758 10.1455 14.8801 9.52539 14.8801 8.70996C14.8801 7.9043 15.4563 7.32324 16.2766 7.32324C17.0969 7.32324 17.6633 7.9043 17.6633 8.73438C17.6633 9.53516 17.0627 10.1455 16.2717 10.1455Z" fill="#002DFF"/>
<path d="M8.14453 1H17.1445V-1H8.14453V1ZM17.1445 14H8.14453V16H17.1445V14ZM8.14453 14C4.55468 14 1.64453 11.0899 1.64453 7.5H-0.355469C-0.355469 12.1944 3.45011 16 8.14453 16V14ZM23.6445 7.5C23.6445 11.0899 20.7344 14 17.1445 14V16C21.839 16 25.6445 12.1944 25.6445 7.5H23.6445ZM17.1445 1C20.7344 1 23.6445 3.91015 23.6445 7.5H25.6445C25.6445 2.80558 21.839 -1 17.1445 -1V1ZM8.14453 -1C3.45011 -1 -0.355469 2.80558 -0.355469 7.5H1.64453C1.64453 3.91015 4.55468 1 8.14453 1V-1Z" fill="#002DFF"/>
</svg>
